com/as/SetterDemoApp.class
com/as/BeanScopeDemoApp.class
com/as/CatCompu.class
com/as/Catedratico.class
com/as/CatIngles.class
com/as/DiaSuerte.class
com/as/BuenServicio.class
com/as/HolaSpringApp.class
com/as/MyApp.class
com/as/CatMat.class
